{
    "data": [
        {
            "id": 1,
            "period": "2015-2019",
            "edu": "Informatics Engineer",
            "school": "Telkom University, Bandung",
            "desc": "Bachelor of Informatics  with a concentration in  system information and database engineer",
            "GPA": 3.61
        },
        {
            "id": 2,
            "period": "2011-2014",
            "edu": "High school",
            "school": "Madrasah Aliyah Negeri 4 Jakarta",
            "desc": "Science major, Chief of ICT Club",
            "GPA": ""
        },
        {
            "id": 3,
            "period": "2008-2011",
            "edu": "Junior High school",
            "school": "Madrasah Tsanawiyah Negeri 3 Jakarta",
            "desc": "-",
            "GPA": ""
        }
    ]
}